(footprint "SX1308_Breakout" (version 20211014) (generator pcbnew)
  (layer "F.Cu")
  (tedit 63D4F06C)
  (descr "Breakout board for the SX1308 boost converter")
  (tags "Boost converter breakout")
  (attr through_hole)
  (fp_text reference "REF**" (at 22.35 7.5 unlocked) (layer "F.SilkS")
    (effects (font (size 1 1) (thickness 0.15)))
    (tstamp 82ca9713-76e4-410d-ab0c-e33db44be4a7)
  )
  (fp_text value "SX1308_Breakout" (at 22.35 9 unlocked) (layer "F.Fab")
    (effects (font (size 1 1) (thickness 0.15)))
    (tstamp 70fcfadf-05a3-453e-a136-e4bab16427d5)
  )
  (fp_text user "${REFERENCE}" (at 22.35 10.5 unlocked) (layer "F.Fab")
    (effects (font (size 1 1) (thickness 0.15)))
    (tstamp 92809647-9bc9-4742-af5e-c2519362f42e)
  )
  (fp_rect (start -3.15 -3) (end 13.85 21) (layer "F.SilkS") (width 0.12) (fill none) (tstamp 82c34417-eb9b-48e1-abfd-f14ea8fc09db))
  (fp_line (start 12.2 5) (end 12.2 13) (layer "Edge.Cuts") (width 0.12) (tstamp 0f373422-87ac-4254-8090-3da8ed2aa656))
  (fp_line (start 9.2 5) (end 9.2 13) (layer "Edge.Cuts") (width 0.12) (tstamp e3b7ecaa-ba0e-40d9-bd04-b2522046e095))
  (fp_arc (start 9.2 5) (mid 10.7 3.5) (end 12.2 5) (layer "Edge.Cuts") (width 0.12) (tstamp 8f355de1-54f7-4c2f-8f83-c9732dfdf01e))
  (fp_arc (start 12.2 13) (mid 10.7 14.5) (end 9.2 13) (layer "Edge.Cuts") (width 0.12) (tstamp bc9c8c91-6429-45dc-8aad-4a6cefec80bb))
  (fp_rect (start -3.15 -3) (end 13.85 21) (layer "F.CrtYd") (width 0.05) (fill none) (tstamp a698b5e4-5afe-4d86-af0d-dc1e00b5fdf2))
  (fp_rect (start -3.15 -3) (end 13.85 21) (layer "F.Fab") (width 0.1) (fill none) (tstamp 365bce42-1e91-47a8-95a4-6d46781a685a))
  (pad "1" thru_hole rect (at 0 0) (size 5 5) (drill 2.5) (layers *.Cu *.Mask) (tstamp 0f658511-6571-42bf-8e41-69c7883267e7))
  (pad "2" thru_hole rect (at 10.7 18) (size 5 5) (drill 2.5) (layers *.Cu *.Mask) (tstamp d5e2a04c-2f20-4e7d-8006-a9c402b3ec5d))
  (pad "3" thru_hole rect (at 10.7 0) (size 5 5) (drill 2.5) (layers *.Cu *.Mask) (tstamp 17af0b03-8a04-4d8e-b4ae-5bcbdbd06c3f))
  (pad "4" thru_hole rect (at 0 18) (size 5 5) (drill 2.5) (layers *.Cu *.Mask) (tstamp 450bfbfe-55ea-458d-84d6-10badb782462))
  (model "${LSF_KICAD_LIB}/lsf-kicad-lib.3dshapes/SX1308_Breakout.wrl"
    (offset (xyz 5.35 -9 0))
    (scale (xyz 1 1 1))
    (rotate (xyz 0 0 0))
  )
)
